<?xml version="1.0" encoding="utf-8" ?>
<kml xmlns="http://www.opengis.net/kml/2.2">
<Document id="root_doc">
<Schema name="gadm36_IND_3" id="gadm36_IND_3">
	<SimpleField name="NAME_0" type="string"></SimpleField>
	<SimpleField name="NAME_1" type="string"></SimpleField>
	<SimpleField name="NAME_2" type="string"></SimpleField>
	<SimpleField name="NAME_3" type="string"></SimpleField>
</Schema>
<Folder><name>gadm36_IND_3</name>
<Placemark>
	<Style><LineStyle><color>ff0000ff</color></LineStyle><PolyStyle><fill>0</fill></PolyStyle></Style>
	<ExtendedData><SchemaData schemaUrl="#gadm36_IND_3">
		<SimpleData name="NAME_0">India</SimpleData>
		<SimpleData name="NAME_1">West Bengal</SimpleData>
		<SimpleData name="NAME_2">Kolkata</SimpleData>
		<SimpleData name="NAME_3">Alipur</SimpleData>
	</SchemaData></ExtendedData>
      <MultiGeometry><Polygon><outerBoundaryIs><LinearRing><coordinates>88.4073104858399,22.5564708709718 88.4057006835938,22.5539302825928 88.3990097045898,22.5548400878907 88.39803314209,22.5538005828859 88.3985214233399,22.54905128479 88.3916931152344,22.5405311584473 88.3872528076172,22.5389595031738 88.387077331543,22.5338706970215 88.379753112793,22.5235500335693 88.3759918212891,22.5213508605958 88.3715667724609,22.5228996276857 88.3696365356445,22.5153102874757 88.3696594238281,22.507511138916 88.3677062988282,22.5005111694336 88.3644409179689,22.4952201843263 88.3589477539062,22.4949398040771 88.3524627685546,22.4955310821534 88.3467025756837,22.494951248169 88.336166381836,22.4978008270264 88.3283691406251,22.5036811828613 88.3243408203126,22.5054607391357 88.3205795288087,22.5047416687013 88.3121566772462,22.5059394836425 88.2974777221681,22.5107898712159 88.2938919067384,22.5111904144287 88.2880783081055,22.5140590667725 88.2879333496094,22.5251598358155 88.2864379882814,22.5326194763185 88.281593322754,22.543140411377 88.274658203125,22.5436191558839 88.2719268798829,22.545991897583 88.2706527709961,22.5517597198487 88.2835998535157,22.5480518341064 88.3081817626954,22.5446128845216 88.3207168579102,22.5468502044678 88.3288879394532,22.5521411895753 88.3434524536134,22.5735206604004 88.3481063842773,22.5889301300049 88.3523330688477,22.5967407226563 88.3597869873047,22.6060218811036 88.364501953125,22.6049404144288 88.3655166625977,22.6123504638672 88.364143371582,22.6206607818605 88.3596801757814,22.6297397613525 88.3805923461915,22.6277675628663 88.3886260986329,22.6263504028321 88.3906173706054,22.6247425079346 88.3921127319337,22.6184310913086 88.3930587768556,22.59774017334 88.3918991088868,22.5907897949219 88.3943405151368,22.5833396911622 88.4021682739258,22.5697097778321 88.4037628173829,22.5623111724855 88.4073104858399,22.5564708709718</coordinates></LinearRing></outerBoundaryIs></Polygon></MultiGeometry>
  </Placemark>
  </Folder>
</Document>
</kml>